{
	"info": {
		"_postman_id": "95533a29-4429-45f9-b81b-6afce8b44510",
		"name": "Module Back-end",
		"schema": "https://schema.getpostman.com/json/collection/v2.1.0/collection.json"
	},
	"item": [
		{
			"name": "user",
			"item": [
				{
					"name": "find All",
					"request": {
						"method": "GET",
						"header": [],
						"url": {
							"raw": "http://localhost:3000/api/users/all",
							"protocol": "http",
							"host": [
								"localhost"
							],
							"port": "3000",
							"path": [
								"api",
								"users",
								"all"
							]
						}
					},
					"response": []
				},
				{
					"name": "post",
					"request": {
						"method": "POST",
						"header": [],
						"body": {
							"mode": "raw",
							"raw": "{\r\n    \"username\": \"Thomas\",\r\n    \"password\": \"password\"\r\n}",
							"options": {
								"raw": {
									"language": "json"
								}
							}
						},
						"url": {
							"raw": "http://localhost:3000/api/users/new",
							"protocol": "http",
							"host": [
								"localhost"
							],
							"port": "3000",
							"path": [
								"api",
								"users",
								"new"
							]
						}
					},
					"response": []
				},
				{
					"name": "find by id",
					"request": {
						"method": "GET",
						"header": [],
						"url": {
							"raw": "http://localhost:3000/api/users/:id",
							"protocol": "http",
							"host": [
								"localhost"
							],
							"port": "3000",
							"path": [
								"api",
								"users",
								":id"
							],
							"variable": [
								{
									"key": "id",
									"value": "61829c69a16e649b6aa0f3c9"
								}
							]
						}
					},
					"response": []
				},
				{
					"name": "find me",
					"request": {
						"method": "GET",
						"header": [],
						"url": {
							"raw": "http://localhost:3000/api/users/me",
							"protocol": "http",
							"host": [
								"localhost"
							],
							"port": "3000",
							"path": [
								"api",
								"users",
								"me"
							]
						}
					},
					"response": []
				}
			]
		},
		{
			"name": "auth",
			"item": [
				{
					"name": "login",
					"request": {
						"method": "POST",
						"header": [],
						"body": {
							"mode": "raw",
							"raw": "{\r\n    \"username\" : \"Jacques\",\r\n    \"password\" : \"password\"\r\n}",
							"options": {
								"raw": {
									"language": "json"
								}
							}
						},
						"url": {
							"raw": "http://localhost:3000/api/auth/login",
							"protocol": "http",
							"host": [
								"localhost"
							],
							"port": "3000",
							"path": [
								"api",
								"auth",
								"login"
							]
						}
					},
					"response": []
				},
				{
					"name": "logout",
					"request": {
						"method": "DELETE",
						"header": [],
						"url": {
							"raw": "http://localhost:3000/api/auth/logout",
							"protocol": "http",
							"host": [
								"localhost"
							],
							"port": "3000",
							"path": [
								"api",
								"auth",
								"logout"
							]
						}
					},
					"response": []
				}
			]
		},
		{
			"name": "talk",
			"item": [
				{
					"name": "create talk",
					"request": {
						"method": "POST",
						"header": [],
						"body": {
							"mode": "raw",
							"raw": "{\r\n    \"name\": \"Discussion 6\"\r\n}",
							"options": {
								"raw": {
									"language": "json"
								}
							}
						},
						"url": {
							"raw": "http://localhost:3000/api/talks",
							"protocol": "http",
							"host": [
								"localhost"
							],
							"port": "3000",
							"path": [
								"api",
								"talks"
							]
						}
					},
					"response": []
				},
				{
					"name": "find All",
					"request": {
						"method": "GET",
						"header": [],
						"url": {
							"raw": "http://localhost:3000/api/talks/all",
							"protocol": "http",
							"host": [
								"localhost"
							],
							"port": "3000",
							"path": [
								"api",
								"talks",
								"all"
							],
							"query": [
								{
									"key": "page",
									"value": "3",
									"disabled": true
								},
								{
									"key": "limit",
									"value": "2",
									"disabled": true
								}
							]
						}
					},
					"response": []
				},
				{
					"name": "find by id",
					"request": {
						"method": "GET",
						"header": [],
						"url": {
							"raw": "http://localhost:3000/api/talks/:id",
							"protocol": "http",
							"host": [
								"localhost"
							],
							"port": "3000",
							"path": [
								"api",
								"talks",
								":id"
							],
							"variable": [
								{
									"key": "id",
									"value": "6183afc6fa45a83f05132a0e"
								}
							]
						}
					},
					"response": []
				},
				{
					"name": "Add member to task",
					"request": {
						"method": "PUT",
						"header": [],
						"url": {
							"raw": "http://localhost:3000/api/talks/:talkId/add-member/:memberId",
							"protocol": "http",
							"host": [
								"localhost"
							],
							"port": "3000",
							"path": [
								"api",
								"talks",
								":talkId",
								"add-member",
								":memberId"
							],
							"variable": [
								{
									"key": "talkId",
									"value": "6183b96bc312f48d27c30c08"
								},
								{
									"key": "memberId",
									"value": "61829c69a16e649b6aa0f3c9"
								}
							]
						}
					},
					"response": []
				}
			]
		},
		{
			"name": "message",
			"item": [
				{
					"name": "New message",
					"request": {
						"method": "POST",
						"header": [],
						"body": {
							"mode": "raw",
							"raw": "{\r\n    \"content\": \"Message de test\",\r\n    \"recipient\": \"61850c87fac63693969673e1\"\r\n}",
							"options": {
								"raw": {
									"language": "json"
								}
							}
						},
						"url": {
							"raw": "http://localhost:3000/api/messages",
							"protocol": "http",
							"host": [
								"localhost"
							],
							"port": "3000",
							"path": [
								"api",
								"messages"
							]
						}
					},
					"response": []
				},
				{
					"name": "Find all messages",
					"request": {
						"method": "GET",
						"header": [],
						"url": {
							"raw": "http://localhost:3000/api/messages/all",
							"protocol": "http",
							"host": [
								"localhost"
							],
							"port": "3000",
							"path": [
								"api",
								"messages",
								"all"
							]
						}
					},
					"response": []
				},
				{
					"name": "Find all message by talk",
					"request": {
						"method": "GET",
						"header": [],
						"url": {
							"raw": "http://localhost:3000/api/messages/all/talk/:id?page=2&limit=2",
							"protocol": "http",
							"host": [
								"localhost"
							],
							"port": "3000",
							"path": [
								"api",
								"messages",
								"all",
								"talk",
								":id"
							],
							"query": [
								{
									"key": "page",
									"value": "2"
								},
								{
									"key": "limit",
									"value": "2"
								}
							],
							"variable": [
								{
									"key": "id",
									"value": "6184f3d681a4d05991ec02a7"
								}
							]
						}
					},
					"response": []
				}
			]
		}
	]
}